sequence_detector.vcd
$date
     May 29, 2017       18:33:01
$end

$version
 SystemC 2.3.1-Accellera --- May 22 2017 22:23:54
$end

$timescale
     1 ps
$end

$scope module SystemC $end
$var wire    1  aaaaa  clock       $end
$var wire    1  aaaab  reset       $end
$var wire    1  aaaac  serial_input       $end
$var wire    1  aaaad  Mealy_output       $end
$upscope $end
$enddefinitions  $end

$comment
All initial values are dumped below at time 0 sec = 0 timescale units.
$end

$dumpvars
xaaaaa
xaaaab
xaaaac
0aaaad
$end

#20000
0aaaaa

#25000
1aaaac

#37000
0aaaab

#40000
1aaaaa

#60000
0aaaaa

#80000
1aaaaa

#90000
0aaaac

#96000
1aaaab

#100000
0aaaaa

#120000
1aaaaa
1aaaac

#140000
0aaaaa

#150000
0aaaac

#155000
0aaaab

#160000
1aaaaa

#175000
1aaaac

#180000
0aaaaa

#200000
1aaaaa

#220000
0aaaaa

#240000
1aaaaa
0aaaac

#260000
0aaaaa

#270000
1aaaac

#280000
1aaaaa

#300000
0aaaaa
0aaaac

#320000
1aaaaa

#325000
1aaaac

#340000
0aaaaa

#360000
1aaaaa

#380000
0aaaaa

#390000
0aaaac
1aaaad

#400000
1aaaaa
0aaaad

#420000
0aaaaa
1aaaac

#440000
1aaaaa

#450000
0aaaac

#460000
0aaaaa

#475000
1aaaac

#480000
1aaaaa

#500000
0aaaaa

#520000
1aaaaa

#540000
0aaaaa
0aaaac

#560000
1aaaaa

#570000
1aaaac

#580000
0aaaaa

#600000
1aaaaa
0aaaac
1aaaad

#620000
0aaaaa

#625000
1aaaac
0aaaad

#640000
1aaaaa

#660000
0aaaaa

#680000
1aaaaa

#690000
0aaaac

#700000
0aaaaa

#720000
1aaaaa
1aaaac

#740000
0aaaaa

#750000
0aaaac

#760000
1aaaaa

#775000
1aaaac

#780000
0aaaaa

#800000
1aaaaa

#820000
0aaaaa

#840000
1aaaaa
0aaaac

#860000
0aaaaa

#870000
1aaaac

#880000
1aaaaa

#900000
0aaaaa
0aaaac

#920000
1aaaaa

#925000
1aaaac

#940000
0aaaaa

#960000
1aaaaa

#980000
0aaaaa

#990000
0aaaac
1aaaad

#1000000
1aaaaa
0aaaad

#1020000
0aaaaa
1aaaac

#1040000
1aaaaa

#1050000
0aaaac

#1060000
0aaaaa

#1075000
1aaaac

#1080000
1aaaaa

#1100000
0aaaaa

#1120000
1aaaaa

#1140000
0aaaaa
0aaaac

#1160000
1aaaaa

#1170000
1aaaac

#1180000
0aaaaa

#1200000
1aaaaa
0aaaac
1aaaad

#1220000
0aaaaa

#1225000
1aaaac
0aaaad

#1240000
1aaaaa

#1260000
0aaaaa

#1280000
1aaaaa

#1290000
0aaaac

#1300000
0aaaaa

#1320000
1aaaaa
1aaaac

#1340000
0aaaaa

#1350000
0aaaac

#1360000
1aaaaa

#1375000
1aaaac

#1380000
0aaaaa

#1400000
1aaaaa

#1420000
0aaaaa

#1440000
1aaaaa
0aaaac

#1460000
0aaaaa

#1470000
1aaaac

#1480000
1aaaaa

#1500000
0aaaaa
0aaaac

#1520000
1aaaaa

#1525000
1aaaac

#1540000
0aaaaa

#1560000
1aaaaa

#1580000
0aaaaa

#1590000
0aaaac
1aaaad

#1600000
1aaaaa
0aaaad

#1620000
0aaaaa
1aaaac

#1640000
1aaaaa

#1650000
0aaaac

#1660000
0aaaaa

#1675000
1aaaac

#1680000
1aaaaa

#1700000
0aaaaa

#1720000
1aaaaa

#1740000
0aaaaa
0aaaac

#1760000
1aaaaa

#1770000
1aaaac

#1780000
0aaaaa

#1800000
1aaaaa
0aaaac
1aaaad

#1820000
0aaaaa

#1825000
1aaaac
0aaaad

#1840000
1aaaaa

#1860000
0aaaaa

#1880000
1aaaaa

#1890000
0aaaac

#1900000
0aaaaa

#1920000
1aaaaa
1aaaac

#1940000
0aaaaa

#1950000
0aaaac

#1960000
1aaaaa

#1975000
1aaaac

#1980000
0aaaaa

#2000000
1aaaaa

#2020000
0aaaaa

#2040000
1aaaaa
0aaaac

#2060000
0aaaaa

#2070000
1aaaac

#2080000
1aaaaa

#2100000
0aaaaa
0aaaac

#2120000
1aaaaa

#2125000
1aaaac

#2140000
0aaaaa

#2160000
1aaaaa

#2180000
0aaaaa

#2190000
0aaaac
1aaaad

#2200000
1aaaaa
0aaaad

#2220000
0aaaaa
1aaaac

#2240000
1aaaaa

#2250000
0aaaac

#2260000
0aaaaa

#2275000
1aaaac

#2280000
1aaaaa

#2300000
0aaaaa

#2320000
1aaaaa

#2340000
0aaaaa
0aaaac

#2360000
1aaaaa

#2370000
1aaaac

#2380000
0aaaaa

#2400000
1aaaaa
0aaaac
1aaaad

#2420000
0aaaaa

#2425000
1aaaac
0aaaad

#2440000
1aaaaa

#2460000
0aaaaa

#2480000
1aaaaa

#2490000
0aaaac

#2500000
0aaaaa

#2520000
1aaaaa
1aaaac

#2540000
0aaaaa

#2550000
0aaaac

#2560000
1aaaaa

#2575000
1aaaac

#2580000
0aaaaa

#2600000
1aaaaa

#2620000
0aaaaa

#2640000
1aaaaa
0aaaac

#2660000
0aaaaa

#2670000
1aaaac

#2680000
1aaaaa

#2700000
0aaaaa
0aaaac

#2720000
1aaaaa

#2725000
1aaaac

#2740000
0aaaaa

#2760000
1aaaaa

#2780000
0aaaaa

#2790000
0aaaac
1aaaad

#2800000
1aaaaa
0aaaad

#2820000
0aaaaa
1aaaac

#2840000
1aaaaa

#2850000
0aaaac

#2860000
0aaaaa

#2875000
1aaaac

#2880000
1aaaaa

#2900000
0aaaaa

#2920000
1aaaaa

#2940000
0aaaaa
0aaaac

#2960000
1aaaaa

#2970000
1aaaac

#2980000
0aaaaa

#3000000
1aaaaa
0aaaac
1aaaad

#3020000
0aaaaa

#3025000
1aaaac
0aaaad

#3040000
1aaaaa

#3060000
0aaaaa

#3080000
1aaaaa

#3090000
0aaaac

#3100000
0aaaaa

#3120000
1aaaaa
1aaaac

#3140000
0aaaaa

#3150000
0aaaac

#3160000
1aaaaa

#3175000
1aaaac

#3180000
0aaaaa

#3200000
1aaaaa

#3220000
0aaaaa

#3240000
1aaaaa
0aaaac

#3260000
0aaaaa

#3270000
1aaaac

#3280000
1aaaaa

#3300000
0aaaaa
0aaaac

#3320000
1aaaaa

#3325000
1aaaac

#3340000
0aaaaa

#3360000
1aaaaa

#3380000
0aaaaa

#3390000
0aaaac
1aaaad

#3400000
1aaaaa
0aaaad

#3420000
0aaaaa
1aaaac

#3440000
1aaaaa

#3450000
0aaaac

#3460000
0aaaaa

#3475000
1aaaac

#3480000
1aaaaa

#3500000
0aaaaa

#3520000
1aaaaa

#3540000
0aaaaa
0aaaac

#3560000
1aaaaa

#3570000
1aaaac

#3580000
0aaaaa

#3600000
1aaaaa
0aaaac
1aaaad

#3620000
0aaaaa

#3625000
1aaaac
0aaaad

#3640000
1aaaaa

#3660000
0aaaaa

#3680000
1aaaaa

#3690000
0aaaac

#3700000
0aaaaa

#3720000
1aaaaa
1aaaac

#3740000
0aaaaa

#3750000
0aaaac

#3760000
1aaaaa

#3775000
1aaaac

#3780000
0aaaaa

#3800000
1aaaaa

#3820000
0aaaaa

#3840000
1aaaaa
0aaaac

#3860000
0aaaaa

#3870000
1aaaac

#3880000
1aaaaa

#3900000
0aaaaa
0aaaac

#3920000
1aaaaa

#3925000
1aaaac

#3940000
0aaaaa

#3960000
1aaaaa

#3980000
0aaaaa

#3990000
0aaaac
1aaaad

